…
The package also includes a list of journals indexed in MEDLINE in the NLM
catalog at NCBI.  This table includes MeSH terms assigned to the journal, which
can be used to summarize the publications about *Waddlia chondrophila*  (which
could be considered a new emerging zoonotic pathogen based on the journal
sources).

```r
data(nlm)
inner_join(wc, nlm, by=c(journalTitle="ta")) %>%
 tidyr::separate_rows(mesh, sep="; ") %>% dplyr::count(mesh, sort=TRUE)
# # A tibble: 57 x 2
#   mesh                              n
#   <chr>                         <int>
# 1 Microbiology*                    19
# 2 Immunity*                         9
# 3 Infection                         9
# 4 Communicable Diseases*            7
# 5 Medicine*                         7
# 6 Science                           6
# 7 Veterinary Medicine*              6
# 8 Infection*                        5
# 9 Allergy and Immunology*           4
#10 Communicable Disease Control*     4
## ... with 47 more rows
```
…
